{
  "type": "service_account",
  "project_id": "ocr-facebooktest",
  "private_key_id": "4692ecf3bc664620cf6bb78973faa76a26e3ea96",
  "private_key": "-----BEGIN PRIVATE KEY-----\nMIIEvgIBADANBgkqhkiG9w0BAQEFAASCBKgwggSkAgEAAoIBAQCs9Oj0T86qQ296\n51WnirH1TSWF2IHZlCMGqv0hJOMANELoymRN0z/bGcHdkRKbzuY+TK3AHGgA2Oix\n0gZ8DoWp5GmaPavmh3PsGSQZki0n5qXUKL+I8EZlu4TGt7z6ymgNsKoaupbqqjn0\n+Q0ptORpvn1KGMzPnDh38nuUbMdkLzgdju7X0JMbgE/KvyY292ojQTVDy7BS3JF5\nZuaTzoFxb3L9X59bak7MD95+GqNZ7KJhraW+71dBmwXDqloAb9JAnbmfM7mo0RmW\nXASH0maVwbsPI+v/VZW/icfGu/AoIaFRpvTdR9unsLPGyRKT6OPVv4ryXkp3RIqP\n7TMohtLpAgMBAAECggEAAf+LCMuP6oVV7o2+qRgKn01mtL8AHQ3qQQOiYgrQOT/h\nUq7dQs2WgXGw54jrYJ50KDMa7Mscjn9IYkmNZqCE/dCplwJwZSeaeMH/mfCyPIbx\n0oYtVFKGVbA5bqb6dCFOMMj3kNB9ZDUBmhQd3qX8NOviUa6rVcNgdE5Ptt1yM5+X\n0G4PTzha2qJBO+QpYsq7yL40bX+VdY8eJUQ95YiUmv2KA6aVXcb0+CB0QkyoZi8T\nEk9IBJQXaS7G70+X6/S4IDjWJfEO/T0TKnnChueEBPu4rMy01udP4OaAVk1onzp6\n/QnYdj10XRQzVdwozypSuOiPMq8pSOX9ptftxU85SwKBgQDpeZtEbCx+YlEIr6Tk\nESnAXr+TYjzWGWrAj+YKgUnGU0SM/oHd1ZPD/2lTUtMvMp8UyrRNIGKd5BnvRzES\n6OT3PJnyD3kiIXNTxmIGN6x4C/VDqD+004+tm3riXlgGKSrCB2Hf9R4ycn1o8uXP\n2x/TLmwRwkewmGfu0mjpp29zQwKBgQC9pJ1Bg5c1Pcv6BoN7z1JJTbkxR9SEEpfW\n+xEBVu+GPLeMKkeFGx0fT5QZbKx6r/YuDv5rbnIhWg9Gzh2vmvXWW8PdnPUp06Sj\nMjhtxmnNr7KMTQKncLHdBjurtwdbGevsW2Zw5e/d4lfy9PeaLjs2cVwdiTnUn7Zi\nxQpczunAYwKBgQCn7NhZWTiTWmGQTszZYOLXww4lknXRRAy9HYLGsYD/jWpzwqZj\niLc0NKNr09mjS9SRns4Z3x4vFB33NQw93pa4oLTVHn3wp4CMk9ZzRF3fJjKtC/lu\nNPBVXMwAvvyuybNARREHhQTIIgLDlljmrGNygCQojcUEZknywxHEZLJLgwKBgEOd\nG0wuZIzg+YatJ9fOtSHZijudxpFIJ8bIQOnfWwrbPv3EXTeB0UJGlyDxdBVSA02s\nnt0ixaJKf8PY3RCtCRViJlUvDuHYyYw97YyF/1cMW3ZWRqn4LhIFlOTGHuNGPK1K\ncR2zfW/4sS64VEcuUII6rIMDWBEM2HQimG06gHDNAoGBAL5LbasCYY2rexpMbgtV\nycf6vNFhrTOuCEsx8A0kD3FKoZ+XeVc5wxxJVdgL2dmy0aDjIKtoEfLEkKAA2B8p\neYoQJ0K6sYxlkcxrwiIdWYIwMsLgxHuSBYCuGq/SLkfpqziQJ5Gw9iYnTULL5LOC\nYCvqKjGP+kSKZmEbpUPHmiob\n-----END PRIVATE KEY-----\n",
  "client_email": "ocr-facebooktest@appspot.gserviceaccount.com",
  "client_id": "107607356161727177075",
  "auth_uri": "https://accounts.google.com/o/oauth2/auth",
  "token_uri": "https://oauth2.googleapis.com/token",
  "auth_provider_x509_cert_url": "https://www.googleapis.com/oauth2/v1/certs",
  "client_x509_cert_url": "https://www.googleapis.com/robot/v1/metadata/x509/ocr-facebooktest%40appspot.gserviceaccount.com"
}
